<svg viewBox="0 0 100 100" stroke="currentColor">
	<g className="hobbies__accordion-icon__cooking-chefhat" fill="none" strokeWidth="6" strokeLinecap="round" strokeLinejoin="round">
		<rect x="23.3" y="70" width="54.2" height="15.3" ry="6.34" />
		<path d="m73.4 31c-7.06-26.8-39.5-26.8-46.6 0" />
		<path d="m28.2 70c-20.3-5.77-21.3-49.5 3.7-49.5" />
		<path d="m72.4 70c20.3-5.77 21.3-49.5-3.7-49.5" />
		<g transform="matrix(1.02 0 0 1.06 -122 -32.4)">
			<path d="m169 96v-12.1" />
			<path d="m160 96c-4.96-2-9.67-7.18-11.6-12.6" />
			<path d="m178 96c4.96-2 9.67-7.18 11.6-12.6" />
		</g>
	</g>
</svg>
